<svg width="164" height="52" viewBox="0 0 164 52" fill="none" xmlns="http://www.w3.org/2000/svg">
<path d="M157.926 0H6.07407C2.71946 0 0 2.89205 0 6.45957V45.217C0 48.7845 2.71946 51.6765 6.07407 51.6765H157.926C161.281 51.6765 164 48.7845 164 45.217V6.45957C164 2.89205 161.281 0 157.926 0Z" fill="black"/>
<path d="M157.926 1.03353C159.279 1.03354 160.577 1.60522 161.534 2.6228C162.491 3.64038 163.028 5.02051 163.028 6.45958V45.2169C163.028 46.656 162.491 48.0361 161.534 49.0537C160.577 50.0713 159.279 50.643 157.926 50.643H6.07408C5.40404 50.643 4.74057 50.5026 4.12154 50.2299C3.50251 49.9572 2.94004 49.5576 2.46625 49.0537C1.99247 48.5498 1.61664 47.9517 1.36023 47.2934C1.10382 46.635 0.97185 45.9295 0.971851 45.2169V6.45958C0.97185 5.74702 1.10382 5.04143 1.36023 4.38312C1.61664 3.7248 1.99247 3.12664 2.46625 2.62278C2.94004 2.11893 3.50251 1.71924 4.12154 1.44656C4.74057 1.17388 5.40404 1.03353 6.07408 1.03353H157.926ZM157.926 0H6.07408C5.27642 -1.85421e-07 4.48657 0.167086 3.74962 0.49171C3.01268 0.816334 2.34308 1.29214 1.77905 1.89197C1.21502 2.4918 0.767608 3.2039 0.462358 3.98761C0.157108 4.77132 -1.78684e-06 5.6113 0 6.45958V45.2169C-1.78684e-06 46.0652 0.157108 46.9052 0.462358 47.6889C0.767608 48.4726 1.21502 49.1847 1.77905 49.7845C2.34308 50.3844 3.01268 50.8602 3.74962 51.1848C4.48657 51.5094 5.27642 51.6765 6.07408 51.6765H157.926C159.537 51.6765 161.082 50.9959 162.221 49.7845C163.36 48.5731 164 46.9301 164 45.2169V6.45958C164 4.7464 163.36 3.10339 162.221 1.89198C161.082 0.680577 159.537 7.79175e-06 157.926 0Z" fill="#A6A6A6"/>
<path d="M60.423 13.5539C60.4421 13.9922 60.3772 14.43 60.2324 14.8408C60.0875 15.2516 59.8657 15.6268 59.5803 15.9437C59.2617 16.2957 58.8768 16.5723 58.4509 16.7556C58.025 16.9388 57.5676 17.0245 57.1085 17.0071C56.4118 17.0013 55.7323 16.777 55.155 16.3623C54.5777 15.9476 54.1284 15.3609 53.8632 14.6758C53.5981 13.9907 53.529 13.2376 53.6646 12.5109C53.8002 11.7842 54.1344 11.1162 54.6254 10.5906C54.9481 10.2403 55.335 9.96407 55.7621 9.7791C56.1892 9.59413 56.6474 9.50433 57.1085 9.51526C57.5834 9.51354 58.0537 9.61515 58.4904 9.81385C58.897 9.98824 59.2589 10.2626 59.5466 10.6144L58.9511 11.2477C58.7269 10.964 58.4436 10.7397 58.1238 10.5925C57.804 10.4452 57.4564 10.3791 57.1085 10.3993C56.7575 10.3975 56.4098 10.4711 56.0862 10.6156C55.7627 10.7601 55.4699 10.9727 55.2254 11.2405C54.981 11.5082 54.7899 11.8258 54.6636 12.174C54.5373 12.5222 54.4785 12.894 54.4906 13.267C54.4832 13.824 54.6311 14.3708 54.9157 14.8385C55.2002 15.3062 55.6086 15.6737 56.0893 15.8949C56.5701 16.116 57.1016 16.1807 57.6169 16.081C58.1322 15.9812 58.6082 15.7213 58.9848 15.3342C59.3305 14.9357 59.5299 14.4183 59.5466 13.8764H57.1085V13.0161H60.378C60.408 13.1936 60.423 13.3735 60.423 13.5538L60.423 13.5539Z" fill="white" stroke="white" stroke-width="0.272495" stroke-miterlimit="10"/>
<path d="M65.5689 10.5668H62.5353V12.837H65.2992V13.6973H62.5353V15.9676H65.5689V16.8518H61.6364V9.68259H65.5689V10.5668Z" fill="white" stroke="white" stroke-width="0.272495" stroke-miterlimit="10"/>
<path d="M69.2542 16.8518H68.389V10.5668H66.5015V9.68259H71.1867V10.5668H69.2542V16.8518Z" fill="white" stroke="white" stroke-width="0.272495" stroke-miterlimit="10"/>
<path d="M74.4899 16.8518V9.68259H75.3554V16.8518H74.4899Z" fill="white" stroke="white" stroke-width="0.272495" stroke-miterlimit="10"/>
<path d="M79.1977 16.8518H78.3325V10.5668H76.4449V9.68259H81.074V10.5668H79.1977V16.8518Z" fill="white" stroke="white" stroke-width="0.272495" stroke-miterlimit="10"/>
<path d="M89.849 15.9197C89.1921 16.6144 88.3035 17.0043 87.3772 17.0043C86.4508 17.0043 85.5622 16.6144 84.9053 15.9197C84.2669 15.2011 83.9112 14.2498 83.9112 13.2612C83.9112 12.2725 84.2669 11.3213 84.9053 10.6026C85.2291 10.2558 85.6142 9.98053 86.0384 9.7927C86.4626 9.60486 86.9176 9.50815 87.3772 9.50815C87.8367 9.50815 88.2917 9.60486 88.7159 9.7927C89.1401 9.98053 89.5252 10.2558 89.849 10.6026C90.49 11.3199 90.8474 12.2716 90.8474 13.2612C90.8474 14.2507 90.49 15.2024 89.849 15.9197ZM85.5457 15.3223C86.0322 15.8374 86.6907 16.1267 87.3772 16.1267C88.0636 16.1267 88.7221 15.8374 89.2086 15.3223C89.6886 14.7596 89.9545 14.0269 89.9545 13.2671C89.9545 12.5073 89.6886 11.7747 89.2086 11.212C88.7221 10.6968 88.0636 10.4076 87.3772 10.4076C86.6907 10.4076 86.0322 10.6968 85.5457 11.212C85.0657 11.7747 84.7998 12.5073 84.7998 13.2671C84.7998 14.0269 85.0657 14.7596 85.5457 15.3223Z" fill="white" stroke="white" stroke-width="0.272495" stroke-miterlimit="10"/>
<path d="M92.0624 16.8518V9.68259H93.1186L96.3994 15.2626V13.8766V9.68259H97.2533V16.8518H96.3544L92.9276 11.0089V12.3949V16.8518H92.0624Z" fill="white" stroke="white" stroke-width="0.272495" stroke-miterlimit="10"/>
<path d="M83.7031 27.3068C82.7597 27.3115 81.8387 27.6133 81.0564 28.1742C80.2741 28.7351 79.6655 29.5298 79.3075 30.4581C78.9496 31.3865 78.8582 32.4068 79.045 33.3903C79.2318 34.3738 79.6883 35.2764 80.357 35.9842C81.0257 36.692 81.8766 37.1733 82.8022 37.3673C83.7279 37.5613 84.6869 37.4594 85.5581 37.0743C86.4293 36.6893 87.1738 36.0384 87.6975 35.2038C88.2212 34.3692 88.5007 33.3884 88.5007 32.385C88.5099 31.7134 88.3919 31.0467 88.1537 30.4246C87.9156 29.8026 87.5622 29.2378 87.1146 28.764C86.6669 28.2901 86.1342 27.9169 85.5481 27.6666C84.9621 27.4163 84.3346 27.2939 83.7031 27.3068ZM83.7031 35.4678C83.1229 35.5109 82.5439 35.3675 82.0414 35.056C81.5388 34.7446 81.136 34.2795 80.8853 33.7214C80.6345 33.1632 80.5475 32.5378 80.6355 31.9264C80.7234 31.3149 80.9823 30.7457 81.3785 30.2928C81.7746 29.8399 82.2897 29.5242 82.8568 29.3868C83.4239 29.2494 84.0168 29.2966 84.5584 29.5222C85.0999 29.7479 85.5651 30.1415 85.8935 30.6521C86.2219 31.1627 86.3983 31.7665 86.3997 32.385C86.4178 32.7769 86.3619 33.1688 86.2353 33.5374C86.1088 33.906 85.9141 34.2439 85.6628 34.5312C85.4115 34.8185 85.1086 35.0494 84.772 35.2103C84.4355 35.3711 84.072 35.4587 83.7031 35.4678ZM73.2428 27.3068C72.2988 27.3092 71.3767 27.609 70.5929 28.1684C69.8091 28.7279 69.1989 29.5218 68.8392 30.4499C68.4795 31.3781 68.3865 32.3987 68.572 33.383C68.7575 34.3673 69.2132 35.271 69.8815 35.98C70.5497 36.689 71.4006 37.1715 72.3266 37.3665C73.2525 37.5614 74.2121 37.4602 75.084 37.0755C75.9558 36.6908 76.701 36.0399 77.2252 35.2051C77.7494 34.3702 78.0291 33.3889 78.0291 32.385C78.0383 31.7134 77.9203 31.0467 77.6822 30.4246C77.444 29.8026 77.0906 29.2378 76.643 28.764C76.1953 28.2901 75.6626 27.9169 75.0765 27.6666C74.4905 27.4163 73.863 27.2939 73.2316 27.3068H73.2428ZM73.2428 35.4678C72.6623 35.5134 72.0823 35.372 71.5784 35.0622C71.0744 34.7523 70.6699 34.2883 70.4174 33.7305C70.1649 33.1728 70.0762 32.5471 70.1628 31.9349C70.2493 31.3228 70.5072 30.7525 70.9028 30.2984C71.2983 29.8443 71.8133 29.5273 72.3806 29.3888C72.948 29.2503 73.5414 29.2966 74.0836 29.5217C74.6258 29.7469 75.0918 30.1404 75.4207 30.6511C75.7497 31.1618 75.9265 31.766 75.9281 32.385C75.9462 32.7769 75.8903 33.1688 75.7638 33.5374C75.6372 33.906 75.4425 34.2439 75.1912 34.5312C74.9399 34.8185 74.637 35.0494 74.3004 35.2103C73.9639 35.3711 73.6004 35.4587 73.2316 35.4678H73.2428ZM60.7825 28.8721V31.0229H65.6363C65.5602 32.0359 65.1642 32.9917 64.5127 33.7352C64.0271 34.2612 63.4434 34.6733 62.799 34.945C62.1546 35.2166 61.4639 35.3418 60.7713 35.3125C59.3409 35.3125 57.9692 34.7082 56.9578 33.6326C55.9464 32.557 55.3782 31.0982 55.3782 29.5771C55.3782 28.0559 55.9464 26.5971 56.9578 25.5215C57.9692 24.4459 59.3409 23.8417 60.7713 23.8417C62.1395 23.8179 63.4608 24.3723 64.4453 25.3831L65.8722 23.8656C65.2076 23.1499 64.4147 22.5833 63.5404 22.1995C62.6661 21.8157 61.7283 21.6225 60.7825 21.6312C59.7837 21.5899 58.7873 21.7634 57.853 22.1414C56.9187 22.5194 56.0658 23.0941 55.3454 23.831C54.625 24.5679 54.0518 25.4519 53.6604 26.43C53.2689 27.4082 53.0671 28.4603 53.0671 29.5233C53.0671 30.5863 53.2689 31.6384 53.6604 32.6166C54.0518 33.5947 54.625 34.4787 55.3454 35.2156C56.0658 35.9525 56.9187 36.5272 57.853 36.9052C58.7873 37.2832 59.7837 37.4567 60.7825 37.4154C61.7442 37.4616 62.7041 37.2883 63.5975 36.907C64.491 36.5257 65.2972 35.9453 65.9621 35.2049C67.1392 33.8295 67.7677 32.0215 67.7149 30.1625C67.7185 29.7097 67.681 29.2575 67.6026 28.8124H60.7826L60.7825 28.8721ZM111.691 30.5449C111.398 29.6281 110.85 28.8276 110.12 28.2494C109.389 27.6711 108.511 27.3424 107.601 27.3068C106.987 27.3055 106.378 27.4383 105.814 27.697C105.25 27.9556 104.741 28.3346 104.32 28.8106C103.899 29.2865 103.574 29.8493 103.365 30.4641C103.156 31.0789 103.069 31.7327 103.107 32.385C103.093 33.0528 103.206 33.7167 103.439 34.3371C103.672 34.9574 104.021 35.5214 104.463 35.9954C104.906 36.4694 105.434 36.8437 106.015 37.0959C106.597 37.3481 107.22 37.473 107.848 37.4632C108.634 37.4677 109.409 37.2649 110.103 36.8728C110.797 36.4808 111.389 35.9118 111.826 35.2169L110.197 34.022C109.954 34.4531 109.609 34.8096 109.198 35.0568C108.786 35.3039 108.321 35.4332 107.848 35.432C107.362 35.4517 106.881 35.3152 106.468 35.0403C106.055 34.7654 105.73 34.3648 105.534 33.8905L111.927 31.0826L111.691 30.5449ZM105.174 32.2416C105.152 31.872 105.198 31.5013 105.312 31.1512C105.426 30.8011 105.604 30.4787 105.836 30.2027C106.068 29.9267 106.35 29.7028 106.665 29.5441C106.979 29.3854 107.321 29.295 107.669 29.2783C108.031 29.2529 108.393 29.3413 108.708 29.5325C109.024 29.7237 109.28 30.0092 109.444 30.3537L105.174 32.2416ZM99.9835 37.1645H102.085V22.2286H99.9835V37.1645ZM96.5454 28.4419H96.4668C96.1502 28.0654 95.7623 27.7644 95.3285 27.5584C94.8948 27.3525 94.425 27.2464 93.9501 27.2471C92.7222 27.3104 91.5644 27.8737 90.7165 28.8203C89.8685 29.7668 89.3956 31.0239 89.3956 32.3312C89.3956 33.6385 89.8685 34.8957 90.7165 35.8423C91.5644 36.7888 92.7222 37.3521 93.9501 37.4154C94.4262 37.4239 94.8983 37.3214 95.3331 37.1149C95.7679 36.9085 96.1549 36.6032 96.4668 36.2205H96.5341V37.045C96.5341 38.9926 95.5566 40.0322 93.9836 40.0322C93.4597 40.0191 92.9513 39.8406 92.5232 39.5193C92.095 39.198 91.7664 38.7485 91.5792 38.228L89.7478 39.0404C90.0926 39.9322 90.68 40.6942 91.4347 41.2285C92.1894 41.7629 93.077 42.0453 93.9836 42.0396C96.4442 42.0396 98.4779 40.4982 98.4779 36.7463V27.6055H96.5454L96.5454 28.4419ZM94.141 35.4678C93.4162 35.3999 92.7417 35.0457 92.2503 34.475C91.759 33.9044 91.4864 33.1587 91.4864 32.385C91.4864 31.6113 91.759 30.8656 92.2503 30.295C92.7417 29.7244 93.4162 29.3702 94.141 29.3023C94.5003 29.3219 94.8523 29.4177 95.1763 29.5843C95.5003 29.7508 95.7896 29.9846 96.0273 30.2719C96.265 30.5592 96.4462 30.8941 96.5603 31.257C96.6743 31.62 96.7189 32.0035 96.6915 32.385C96.7221 32.7682 96.6794 33.154 96.5658 33.5191C96.4523 33.8843 96.2703 34.2211 96.0308 34.5093C95.7913 34.7974 95.4994 35.0309 95.1726 35.1957C94.8459 35.3604 94.4911 35.453 94.1298 35.4678H94.141ZM121.533 22.2286H116.511V37.1645H118.612V31.5008H121.545C122.143 31.5457 122.745 31.459 123.311 31.2459C123.877 31.0329 124.395 30.6982 124.834 30.2626C125.273 29.827 125.623 29.2999 125.862 28.7142C126.101 28.1285 126.224 27.4967 126.223 26.8582C126.222 26.2198 126.098 25.5884 125.857 25.0033C125.617 24.4182 125.266 23.8921 124.826 23.4578C124.386 23.0234 123.866 22.6901 123.3 22.4786C122.733 22.2671 122.132 22.182 121.533 22.2286H121.533ZM121.533 29.3978H118.601V24.3077H121.578C122.216 24.3077 122.828 24.5771 123.279 25.0566C123.729 25.5361 123.983 26.1865 123.983 26.8647C123.983 27.5429 123.729 28.1933 123.279 28.6728C122.828 29.1523 122.216 29.4217 121.578 29.4217L121.533 29.3978ZM134.488 27.2471C133.723 27.1984 132.962 27.3886 132.297 27.794C131.632 28.1995 131.093 28.8026 130.747 29.5293L132.612 30.3537C132.796 29.9933 133.074 29.6975 133.413 29.5023C133.752 29.3071 134.137 29.221 134.522 29.2544C134.788 29.2213 135.059 29.245 135.317 29.3242C135.575 29.4033 135.815 29.5363 136.025 29.7153C136.234 29.8944 136.407 30.116 136.535 30.3672C136.663 30.6183 136.742 30.894 136.769 31.1782V31.3336C136.094 30.9537 135.341 30.7567 134.578 30.7601C132.567 30.7601 130.533 31.955 130.533 34.1177C130.553 34.5788 130.66 35.0311 130.847 35.4476C131.034 35.8642 131.297 36.2367 131.622 36.543C131.947 36.8494 132.326 37.0834 132.737 37.2312C133.148 37.379 133.583 37.4376 134.016 37.4036C134.545 37.444 135.075 37.3322 135.549 37.0799C136.024 36.8276 136.426 36.4442 136.713 35.9698H136.78V37.1646H138.802V31.4173C138.802 28.8005 136.937 27.283 134.544 27.283L134.488 27.2471ZM134.23 35.432C133.855 35.4876 133.475 35.3868 133.169 35.1506C132.863 34.9144 132.655 34.5612 132.589 34.1654C132.589 32.9705 133.78 32.5762 134.836 32.5762C135.504 32.5587 136.163 32.732 136.746 33.0781C136.676 33.725 136.388 34.3231 135.936 34.7622C135.484 35.2013 134.898 35.4519 134.286 35.4678L134.23 35.432ZM146.173 27.6055L143.769 34.0817H143.701L141.207 27.6055H138.96L142.701 36.6626L140.567 41.693H142.758L148.51 27.6055H146.184H146.173ZM127.286 37.1645H129.387V22.2286H127.286V37.1645Z" fill="white"/>
<path d="M18.8737 10.3277C18.5075 10.7951 18.3227 11.3933 18.3569 12.0005V38.431C18.3227 39.0383 18.5075 39.6365 18.8737 40.1038L18.9524 40.1874L32.8733 25.3949V25.0365L18.9524 10.2441L18.8737 10.3277Z" fill="url(#paint0_linear)"/>
<path d="M37.4799 30.3298L32.8733 25.395V25.0366L37.4799 20.1018L37.5811 20.1617L43.0978 23.4953C44.6708 24.4393 44.6708 25.9926 43.0978 26.9485L37.6036 30.2702L37.4799 30.3298Z" fill="url(#paint1_linear)"/>
<path d="M37.6147 30.2582L32.8733 25.2159L18.8737 40.1038C19.1943 40.4036 19.6033 40.5748 20.03 40.5879C20.4568 40.601 20.8744 40.4552 21.2107 40.1756L37.6259 30.2583" fill="url(#paint2_linear)"/>
<path d="M37.6147 20.1735L21.1995 10.2561C20.8632 9.97647 20.4456 9.83061 20.0189 9.84367C19.5921 9.85674 19.1831 10.0279 18.8625 10.3276L32.8733 25.2157L37.6147 20.1735Z" fill="url(#paint3_linear)"/>
<path opacity="0.2" d="M37.4799 30.1506L21.1995 40.0082C20.8751 40.2661 20.481 40.4055 20.0759 40.4055C19.6709 40.4055 19.2768 40.2661 18.9524 40.0082L18.8737 40.0918L18.9524 40.1754C19.276 40.4351 19.6705 40.5757 20.0759 40.5757C20.4814 40.5757 20.8759 40.4351 21.1995 40.1754L37.6147 30.258L37.4799 30.1506Z" fill="black"/>
<path opacity="0.12" d="M18.8739 39.9365C18.5076 39.4692 18.3226 38.871 18.3569 38.2637V38.4429C18.3226 39.0502 18.5076 39.6484 18.8739 40.1158L18.9526 40.0322L18.8739 39.9365Z" fill="black"/>
<path opacity="0.12" d="M43.0977 26.7691L37.4799 30.1506L37.5811 30.2583L43.0978 26.9365C43.4108 26.7801 43.6795 26.5387 43.8768 26.2366C44.074 25.9345 44.1929 25.5824 44.2213 25.2159C44.1582 25.5489 44.024 25.8621 43.8292 26.1314C43.6345 26.4006 43.3842 26.6189 43.0978 26.7692L43.0977 26.7691Z" fill="black"/>
<path opacity="0.25" d="M21.1995 10.4233L43.0977 23.6625C43.3841 23.8129 43.6344 24.0311 43.8291 24.3004C44.0239 24.5696 44.1581 24.8828 44.2212 25.2159C44.1928 24.8493 44.0739 24.4972 43.8767 24.1951C43.6794 23.893 43.4107 23.6516 43.0977 23.4952L21.1995 10.2561C19.6265 9.31211 18.3456 10.1006 18.3456 12.0125V12.1917C18.3793 10.268 19.6377 9.47935 21.1995 10.4233V10.4233Z" fill="white"/>
<defs>
<linearGradient id="paint0_linear" x1="31.6373" y1="11.7258" x2="11.6254" y2="30.5435" gradientUnits="userSpaceOnUse">
<stop stop-color="#00A0FF"/>
<stop offset="0.01" stop-color="#00A1FF"/>
<stop offset="0.26" stop-color="#00BEFF"/>
<stop offset="0.51" stop-color="#00D2FF"/>
<stop offset="0.76" stop-color="#00DFFF"/>
<stop offset="1" stop-color="#00E3FF"/>
</linearGradient>
<linearGradient id="paint1_linear" x1="45.1538" y1="25.2158" x2="17.9749" y2="25.2158" gradientUnits="userSpaceOnUse">
<stop stop-color="#FFE000"/>
<stop offset="0.41" stop-color="#FFBD00"/>
<stop offset="0.78" stop-color="#FFA500"/>
<stop offset="1" stop-color="#FF9C00"/>
</linearGradient>
<linearGradient id="paint2_linear" x1="35.0418" y1="27.964" x2="7.89884" y2="53.476" gradientUnits="userSpaceOnUse">
<stop stop-color="#FF3A44"/>
<stop offset="1" stop-color="#C31162"/>
</linearGradient>
<linearGradient id="paint3_linear" x1="15.3457" y1="1.53353" x2="27.4626" y2="12.9273" gradientUnits="userSpaceOnUse">
<stop stop-color="#32A071"/>
<stop offset="0.07" stop-color="#2DA771"/>
<stop offset="0.48" stop-color="#15CF74"/>
<stop offset="0.8" stop-color="#06E775"/>
<stop offset="1" stop-color="#00F076"/>
</linearGradient>
</defs>
</svg>
